%YAML 1.1
%TAG !u! tag:unity3d.com,2011:
--- !u!114 &11400000
MonoBehaviour:
  m_ObjectHideFlags: 0
  m_CorrespondingSourceObject: {fileID: 0}
  m_PrefabInstance: {fileID: 0}
  m_PrefabAsset: {fileID: 0}
  m_GameObject: {fileID: 0}
  m_Enabled: 1
  m_EditorHideFlags: 0
  m_Script: {fileID: 11500000, guid: ef949606b80223d489bab95243fe5125, type: 3}
  m_Name: DefaultPlayerSettings
  m_EditorClassIdentifier: 
  playerName:
  - Player 1
  - Player 2
  - Player 3
  - Player 4
  playerCtrlMap:
  - Horizontal
  - Vertical
  - LookX
  - LookY
  - FireTrigger
  - Reload
  - EquipWeapon
  - Sprint
  - Aim
  - ChangeWTrigger
  - Roll
  - Use
  - Crouch
  - ChangeWeapon
  - Throw
  - Fire
  - Mouse ScrollWheel
  useLives: 1
  livesPerPlayer: 4
  UnselectedTextColor: {r: 0.29682097, g: 0.64868456, b: 0.89705884, a: 1}
  SelectedTextColor: {r: 0.25605538, g: 0.9411765, b: 0.4592292, a: 1}
  TypeSelected: 0
  availableCharacters:
  - {fileID: 1280941345836250, guid: 69bfa1f0a89b5e649889e2cb28f6eda5, type: 3}
  - {fileID: 1280941345836250, guid: 23f431a544f1f944f8e0789bc7668e29, type: 3}
  - {fileID: 1248241574549392, guid: b8ea98e3a1d60ea428e1ff61a687c821, type: 3}
  - {fileID: 1481509317908976, guid: ea42b6633862b464e8d432407dc67b22, type: 3}
  selectedCharacters:
  - {fileID: 1280941345836250, guid: 69bfa1f0a89b5e649889e2cb28f6eda5, type: 3}
  - {fileID: 0}
  - {fileID: 0}
  - {fileID: 0}
  playersInGame: 01000000
  finalPlayerCount: 1
  GameType: 0
  useSinglePlayerColor: 0
  singlePlayerColor: {r: 1, g: 1, b: 1, a: 1}
  useCoopPlayerColor: 0
  coopPlayerColor:
  - {r: 0.28676468, g: 0.46876255, b: 1, a: 1}
  - {r: 0.5735294, g: 0.78823537, b: 1, a: 1}
  playerColor:
  - {r: 0.25, g: 0.5344828, b: 1, a: 1}
  - {r: 1, g: 0.29747126, b: 0.25098038, a: 1}
  - {r: 0.08088237, g: 1, b: 0.18933828, a: 1}
  - {r: 0.96799994, g: 1, b: 0, a: 1}
  teamColor:
  - {r: 1, g: 0.26734278, b: 0.051470578, a: 1}
  - {r: 0.022058845, g: 0.5144014, b: 1, a: 1}
  AlwaysShowPickups: 1
  ActivePickupColor: {r: 1, g: 0.8124138, b: 0.19999999, a: 1}
  InactivePickupColor: {r: 0.3, g: 0.3, b: 0.3, a: 0.4}
  showPickupText: 1
  PickupTextColor: {r: 1, g: 0.8124138, b: 0.19999999, a: 1}
