%YAML 1.1
%TAG !u! tag:unity3d.com,2011:
--- !u!114 &11400000
MonoBehaviour:
  m_ObjectHideFlags: 0
  m_CorrespondingSourceObject: {fileID: 0}
  m_PrefabInstance: {fileID: 0}
  m_PrefabAsset: {fileID: 0}
  m_GameObject: {fileID: 0}
  m_Enabled: 1
  m_EditorHideFlags: 0
  m_Script: {fileID: 11500000, guid: 4f5a66014100de24685ef51fb36bc523, type: 3}
  m_Name: Survival_Wave_5
  m_EditorClassIdentifier: 
  Enemies:
  - {fileID: 1575943199653922, guid: 68905a136fb604246965876e4ed68abd, type: 3}
  - {fileID: 1575943199653922, guid: 1700dcb6516fedc4297ec36a26c3e9cd, type: 3}
  - {fileID: 1575943199653922, guid: acc087733f029e447b21e15491850a3e, type: 3}
  - {fileID: 1873296537775560, guid: 69bceabde3f51f1438aab36c8315f395, type: 3}
  enemiesCount: 40
  timeBetweenSpawn: {x: 0.5, y: 1}
