%YAML 1.1
%TAG !u! tag:unity3d.com,2011:
--- !u!21 &2100000
Material:
  serializedVersion: 6
  m_ObjectHideFlags: 0
  m_CorrespondingSourceObject: {fileID: 0}
  m_PrefabInstance: {fileID: 0}
  m_PrefabAsset: {fileID: 0}
  m_Name: M_Soldier_F_Torso
  m_Shader: {fileID: 4800000, guid: 379c1070b49fc7e4b961df5119ca6d13, type: 3}
  m_ShaderKeywords: _METALLICGLOSSMAP _NORMALMAP _SPECGLOSSMAP
  m_LightmapFlags: 5
  m_EnableInstancingVariants: 0
  m_DoubleSidedGI: 0
  m_CustomRenderQueue: -1
  stringTagMap: {}
  disabledShaderPasses: []
  m_SavedProperties:
    serializedVersion: 3
    m_TexEnvs:
    - _BumpMap:
        m_Texture: {fileID: 2800000, guid: 3f6bd16b8e0c15045bc32db872cf6a09, type: 3}
        m_Scale: {x: 1, y: 1}
        m_Offset: {x: 0, y: 0}
    - _ColorMask:
        m_Texture: {fileID: 2800000, guid: 703a963deb2de2448ba1315eb2001845, type: 3}
        m_Scale: {x: 1, y: 1}
        m_Offset: {x: 0, y: 0}
    - _DetailAlbedoMap:
        m_Texture: {fileID: 0}
        m_Scale: {x: 1, y: 1}
        m_Offset: {x: 0, y: 0}
    - _DetailMask:
        m_Texture: {fileID: 0}
        m_Scale: {x: 1, y: 1}
        m_Offset: {x: 0, y: 0}
    - _DetailNormalMap:
        m_Texture: {fileID: 0}
        m_Scale: {x: 1, y: 1}
        m_Offset: {x: 0, y: 0}
    - _DiffuseCM:
        m_Texture: {fileID: 2800000, guid: 703a963deb2de2448ba1315eb2001845, type: 3}
        m_Scale: {x: 1, y: 1}
        m_Offset: {x: 0, y: 0}
    - _EmissionMap:
        m_Texture: {fileID: 2800000, guid: c027c74c41f9a3f4f9dcd1e76f8f8672, type: 3}
        m_Scale: {x: 1, y: 1}
        m_Offset: {x: 0, y: 0}
    - _EmissiveMap:
        m_Texture: {fileID: 0}
        m_Scale: {x: 1, y: 1}
        m_Offset: {x: 0, y: 0}
    - _GlossMap:
        m_Texture: {fileID: 2800000, guid: 4f229edff09eeaa43b3ce327e63931db, type: 3}
        m_Scale: {x: 1, y: 1}
        m_Offset: {x: 0, y: 0}
    - _MainTex:
        m_Texture: {fileID: 2800000, guid: 461cef00c67e1fc409dbbdaf6ca43347, type: 3}
        m_Scale: {x: 1, y: 1}
        m_Offset: {x: 0, y: 0}
    - _MetallicGlossMap:
        m_Texture: {fileID: 2800000, guid: ee12b18da37c0904f971a0bf2f042ae5, type: 3}
        m_Scale: {x: 1, y: 1}
        m_Offset: {x: 0, y: 0}
    - _MetallicMap:
        m_Texture: {fileID: 2800000, guid: ca7c94c4921d38545a61e7a2001a370b, type: 3}
        m_Scale: {x: 1, y: 1}
        m_Offset: {x: 0, y: 0}
    - _MetalnessMap:
        m_Texture: {fileID: 0}
        m_Scale: {x: 1, y: 1}
        m_Offset: {x: 0, y: 0}
    - _OcclusionMap:
        m_Texture: {fileID: 2800000, guid: 81c0f72efee2301468a73fb0a12c63f0, type: 3}
        m_Scale: {x: 1, y: 1}
        m_Offset: {x: 0, y: 0}
    - _ParallaxMap:
        m_Texture: {fileID: 0}
        m_Scale: {x: 1, y: 1}
        m_Offset: {x: 0, y: 0}
    - _SpecGlossMap:
        m_Texture: {fileID: 2800000, guid: c2d7e96055258874db7a7363b664710a, type: 3}
        m_Scale: {x: 1, y: 1}
        m_Offset: {x: 0, y: 0}
    - _SpecularMap:
        m_Texture: {fileID: 2800000, guid: 6f175f03709fe6a4ca7797135120bb30, type: 3}
        m_Scale: {x: 1, y: 1}
        m_Offset: {x: 0, y: 0}
    - _TemperatureMask:
        m_Texture: {fileID: 2800000, guid: 661811ea92622194ca8fd3fad893bd74, type: 3}
        m_Scale: {x: 1, y: 1}
        m_Offset: {x: 0, y: 0}
    m_Ints: []
    m_Floats:
    - _BumpScale: 1
    - _Burning: 1
    - _BurningMix: 0
    - _Cutoff: 0.5
    - _DamageFX: 0
    - _DetailNormalMapScale: 1
    - _DiffuseFactor: 1
    - _DstBlend: 0
    - _EmissionFactor: 2
    - _EmissiveFactor: 1
    - _Fronzen: 1
    - _FronzenMix: 0
    - _FrozenMix: 0
    - _Glossiness: 0.557
    - _Metallic: 1
    - _MetalnessFactor: 0
    - _Mode: 0
    - _OcclusionStrength: 1
    - _Outline: 0
    - _Parallax: 0.02
    - _Specular: 1
    - _SpecularColorized: 0.826
    - _SpecularFactor: 1
    - _SrcBlend: 1
    - _TemperatureMix: 0
    - _TemperatureVFXScale: 2
    - _UVSec: 0
    - _UVWorldScale: 1
    - _ZWrite: 1
    m_Colors:
    - _BurningColor: {r: 0.11029408, g: 0.06331282, b: 0.012975777, a: 1}
    - _Color: {r: 1, g: 1, b: 1, a: 1}
    - _Color1: {r: 0.42409173, g: 0.57760227, b: 0.7794118, a: 1}
    - _Color2: {r: 0.33823532, g: 0.677188, b: 1, a: 1}
    - _DamageColor: {r: 1, g: 1, b: 1, a: 1}
    - _EmissionColor: {r: 0.38235295, g: 0.6677485, b: 1, a: 1}
    - _EmissiveColor: {r: 1, g: 1, b: 1, a: 1}
    - _FrozenColor: {r: 0.5453071, g: 0.7248595, b: 0.9044118, a: 1}
    - _MaskedColorA: {r: 0.71323526, g: 0, b: 0, a: 1}
    - _MaskedColorB: {r: 0.5294118, g: 0.5294118, b: 0.5294118, a: 1}
    - _MaskedColorC: {r: 0.125, g: 0.125, b: 0.125, a: 1}
    - _OutlineColor: {r: 0.4338235, g: 0.78914815, b: 1, a: 0.39215687}
    - _SpecColor: {r: 0.2, g: 0.2, b: 0.2, a: 1}
    - _UVScale: {r: 1, g: 1, b: 1, a: 1}
  m_BuildTextureStacks: []
