%YAML 1.1
%TAG !u! tag:unity3d.com,2011:
--- !u!114 &11400000
MonoBehaviour:
  m_ObjectHideFlags: 0
  m_CorrespondingSourceObject: {fileID: 0}
  m_PrefabInstance: {fileID: 0}
  m_PrefabAsset: {fileID: 0}
  m_GameObject: {fileID: 0}
  m_Enabled: 1
  m_EditorHideFlags: 0
  m_Script: {fileID: 11500000, guid: 973f6ddc2625c89439df4339242f6b60, type: 3}
  m_Name: Rocket Scriptable Object
  m_EditorClassIdentifier: 
  MongoId: {}
  BulletPrefab:
    m_AssetGUID: 
    m_SubObjectName: 
    m_SubObjectType: 
    m_EditorAssetChanged: 0
