%YAML 1.1
%TAG !u! tag:unity3d.com,2011:
--- !u!1 &100880
GameObject:
  m_ObjectHideFlags: 0
  m_CorrespondingSourceObject: {fileID: 0}
  m_PrefabInstance: {fileID: 0}
  m_PrefabAsset: {fileID: 0}
  serializedVersion: 6
  m_Component:
  - component: {fileID: 411338}
  - component: {fileID: 10893002}
  - component: {fileID: 11436332}
  m_Layer: 9
  m_Name: MuzzleLight
  m_TagString: Untagged
  m_Icon: {fileID: 0}
  m_NavMeshLayer: 0
  m_StaticEditorFlags: 0
  m_IsActive: 1
--- !u!4 &411338
Transform:
  m_ObjectHideFlags: 0
  m_CorrespondingSourceObject: {fileID: 0}
  m_PrefabInstance: {fileID: 0}
  m_PrefabAsset: {fileID: 0}
  m_GameObject: {fileID: 100880}
  m_LocalRotation: {x: -0.0000000074505815, y: -4.365575e-10, z: 0.00000001396984,
    w: 1}
  m_LocalPosition: {x: 0, y: -0, z: 0}
  m_LocalScale: {x: 1, y: 1, z: 1}
  m_Children: []
  m_Father: {fileID: 480116}
  m_RootOrder: 0
  m_LocalEulerAnglesHint: {x: 0, y: 0, z: 0}
--- !u!108 &10893002
Light:
  m_ObjectHideFlags: 0
  m_CorrespondingSourceObject: {fileID: 0}
  m_PrefabInstance: {fileID: 0}
  m_PrefabAsset: {fileID: 0}
  m_GameObject: {fileID: 100880}
  m_Enabled: 1
  serializedVersion: 10
  m_Type: 2
  m_Shape: 0
  m_Color: {r: 0.39705884, g: 0.7505071, b: 1, a: 1}
  m_Intensity: 0
  m_Range: 5
  m_SpotAngle: 30
  m_InnerSpotAngle: 21.80208
  m_CookieSize: 10
  m_Shadows:
    m_Type: 2
    m_Resolution: -1
    m_CustomResolution: -1
    m_Strength: 1
    m_Bias: 0.05
    m_NormalBias: 0.4
    m_NearPlane: 0.2
    m_CullingMatrixOverride:
      e00: 1
      e01: 0
      e02: 0
      e03: 0
      e10: 0
      e11: 1
      e12: 0
      e13: 0
      e20: 0
      e21: 0
      e22: 1
      e23: 0
      e30: 0
      e31: 0
      e32: 0
      e33: 1
    m_UseCullingMatrixOverride: 0
  m_Cookie: {fileID: 0}
  m_DrawHalo: 0
  m_Flare: {fileID: 0}
  m_RenderMode: 0
  m_CullingMask:
    serializedVersion: 2
    m_Bits: 4294967295
  m_RenderingLayerMask: 1
  m_Lightmapping: 4
  m_LightShadowCasterMode: 0
  m_AreaSize: {x: 1, y: 1}
  m_BounceIntensity: 1
  m_ColorTemperature: 6570
  m_UseColorTemperature: 0
  m_BoundingSphereOverride: {x: 0, y: 0, z: 0, w: 0}
  m_UseBoundingSphereOverride: 0
  m_UseViewFrustumForShadowCasterCull: 1
  m_ShadowRadius: 0
  m_ShadowAngle: 0
--- !u!114 &11436332
MonoBehaviour:
  m_ObjectHideFlags: 0
  m_CorrespondingSourceObject: {fileID: 0}
  m_PrefabInstance: {fileID: 0}
  m_PrefabAsset: {fileID: 0}
  m_GameObject: {fileID: 100880}
  m_Enabled: 1
  m_EditorHideFlags: 0
  m_Script: {fileID: 11500000, guid: 6d916fe9c3974d447b607375a44ea476, type: 3}
  m_Name: 
  m_EditorClassIdentifier: 
  Factor: 0
  initialFactor: 3.5
  EndFactor: 0
  Timer: 10
  Animate: 0
--- !u!1 &103042
GameObject:
  m_ObjectHideFlags: 0
  m_CorrespondingSourceObject: {fileID: 0}
  m_PrefabInstance: {fileID: 0}
  m_PrefabAsset: {fileID: 0}
  serializedVersion: 6
  m_Component:
  - component: {fileID: 491502}
  - component: {fileID: 13771958}
  m_Layer: 9
  m_Name: Weapon_Rifle_1
  m_TagString: Untagged
  m_Icon: {fileID: 0}
  m_NavMeshLayer: 0
  m_StaticEditorFlags: 0
  m_IsActive: 1
--- !u!4 &491502
Transform:
  m_ObjectHideFlags: 0
  m_CorrespondingSourceObject: {fileID: 0}
  m_PrefabInstance: {fileID: 0}
  m_PrefabAsset: {fileID: 0}
  m_GameObject: {fileID: 103042}
  m_LocalRotation: {x: -0.7071068, y: 0, z: -0, w: 0.7071068}
  m_LocalPosition: {x: 0.000000004328417, y: 0.0659954, z: 0.09902264}
  m_LocalScale: {x: 1, y: 1, z: 1}
  m_Children: []
  m_Father: {fileID: 452552}
  m_RootOrder: 0
  m_LocalEulerAnglesHint: {x: 0, y: 0, z: 0}
--- !u!137 &13771958
SkinnedMeshRenderer:
  m_ObjectHideFlags: 0
  m_CorrespondingSourceObject: {fileID: 0}
  m_PrefabInstance: {fileID: 0}
  m_PrefabAsset: {fileID: 0}
  m_GameObject: {fileID: 103042}
  m_Enabled: 1
  m_CastShadows: 1
  m_ReceiveShadows: 1
  m_DynamicOccludee: 1
  m_StaticShadowCaster: 0
  m_MotionVectors: 1
  m_LightProbeUsage: 1
  m_ReflectionProbeUsage: 1
  m_RayTracingMode: 3
  m_RayTraceProcedural: 0
  m_RenderingLayerMask: 1
  m_RendererPriority: 0
  m_Materials:
  - {fileID: 2100000, guid: cb90096c5f0d9a147a471bff8525e0d8, type: 2}
  m_StaticBatchInfo:
    firstSubMesh: 0
    subMeshCount: 0
  m_StaticBatchRoot: {fileID: 0}
  m_ProbeAnchor: {fileID: 0}
  m_LightProbeVolumeOverride: {fileID: 0}
  m_ScaleInLightmap: 1
  m_ReceiveGI: 1
  m_PreserveUVs: 0
  m_IgnoreNormalsForChartDetection: 0
  m_ImportantGI: 0
  m_StitchLightmapSeams: 0
  m_SelectedEditorRenderState: 3
  m_MinimumChartSize: 4
  m_AutoUVMaxDistance: 0.5
  m_AutoUVMaxAngle: 89
  m_LightmapParameters: {fileID: 0}
  m_SortingLayerID: 0
  m_SortingLayer: 0
  m_SortingOrder: 0
  serializedVersion: 2
  m_Quality: 0
  m_UpdateWhenOffscreen: 0
  m_SkinnedMotionVectors: 1
  m_Mesh: {fileID: 4300000, guid: 41ddbc89f43ce1149ba4f6f0f8ad75c8, type: 3}
  m_Bones:
  - {fileID: 445812}
  m_BlendShapeWeights: []
  m_RootBone: {fileID: 445812}
  m_AABB:
    m_Center: {x: 0.000000022351742, y: -0.17944843, z: 0.009532675}
    m_Extent: {x: 0.042764366, y: 0.42456543, z: 0.14370155}
  m_DirtyAABB: 0
--- !u!1 &124144
GameObject:
  m_ObjectHideFlags: 0
  m_CorrespondingSourceObject: {fileID: 0}
  m_PrefabInstance: {fileID: 0}
  m_PrefabAsset: {fileID: 0}
  serializedVersion: 6
  m_Component:
  - component: {fileID: 480116}
  m_Layer: 9
  m_Name: ShootFX
  m_TagString: Untagged
  m_Icon: {fileID: 0}
  m_NavMeshLayer: 0
  m_StaticEditorFlags: 0
  m_IsActive: 1
--- !u!4 &480116
Transform:
  m_ObjectHideFlags: 0
  m_CorrespondingSourceObject: {fileID: 0}
  m_PrefabInstance: {fileID: 0}
  m_PrefabAsset: {fileID: 0}
  m_GameObject: {fileID: 124144}
  m_LocalRotation: {x: 0.015676158, y: 0.88392705, z: 0.02970866, w: -0.4664168}
  m_LocalPosition: {x: 0.00000014087723, y: -0.6141934, z: 0.062163576}
  m_LocalScale: {x: 1, y: 0.99999976, z: 0.99999964}
  m_Children:
  - {fileID: 411338}
  - {fileID: 482720}
  m_Father: {fileID: 445812}
  m_RootOrder: 0
  m_LocalEulerAnglesHint: {x: 0, y: 0, z: 0}
--- !u!1 &146372
GameObject:
  m_ObjectHideFlags: 0
  m_CorrespondingSourceObject: {fileID: 0}
  m_PrefabInstance: {fileID: 0}
  m_PrefabAsset: {fileID: 0}
  serializedVersion: 6
  m_Component:
  - component: {fileID: 452552}
  - component: {fileID: 11449662}
  - component: {fileID: 65578625859581354}
  m_Layer: 17
  m_Name: Weapon_Laser_1
  m_TagString: Untagged
  m_Icon: {fileID: 0}
  m_NavMeshLayer: 0
  m_StaticEditorFlags: 0
  m_IsActive: 1
--- !u!4 &452552
Transform:
  m_ObjectHideFlags: 0
  m_CorrespondingSourceObject: {fileID: 0}
  m_PrefabInstance: {fileID: 0}
  m_PrefabAsset: {fileID: 0}
  m_GameObject: {fileID: 146372}
  m_LocalRotation: {x: 0, y: 0, z: 0, w: 1}
  m_LocalPosition: {x: 0, y: 0, z: 0}
  m_LocalScale: {x: 1.1500003, y: 1.1500003, z: 1.1499996}
  m_Children:
  - {fileID: 491502}
  - {fileID: 445812}
  - {fileID: 4465629196248968}
  m_Father: {fileID: 0}
  m_RootOrder: 0
  m_LocalEulerAnglesHint: {x: 0, y: 0, z: 0}
--- !u!114 &11449662
MonoBehaviour:
  m_ObjectHideFlags: 0
  m_CorrespondingSourceObject: {fileID: 0}
  m_PrefabInstance: {fileID: 0}
  m_PrefabAsset: {fileID: 0}
  m_GameObject: {fileID: 146372}
  m_Enabled: 1
  m_EditorHideFlags: 0
  m_Script: {fileID: 11500000, guid: f0e1c2577e36c4847882c37ea2d13168, type: 3}
  m_Name: 
  m_EditorClassIdentifier: 
  WeaponName: Laser
  Type: 5
  useIK: 1
  MeleeRadius: 1
  meleeDamage: 1
  BulletsPerShoot: 1
  BulletDamage: 40
  tempModFactor: 0
  BulletSize: 1
  BulletSpeed: 0.75
  BulletAccel: 0
  Bullets: 10
  ActualBullets: 0
  Clips: 15
  ActualClips: 0
  ReloadTime: 2
  playReloadAnim: 1
  bulletTimeToLive: 3
  Reloading: 0
  FireRate: 1
  AccDiv: 0
  radialAngleDirection: 0
  shootingNoise: 50
  useQuickReload: 1
  HUDquickReloadTimes: {x: 0.8, y: 0.85}
  shootShakeFactor: 1
  ShootFXPos: {fileID: 480116}
  BulletPrefab: {fileID: 129264, guid: c265361aa258faf449f73caf467c1112, type: 3}
  ShootFXFLash: {fileID: 139460, guid: a7ccdab052045264aacf8e4c2b4493d0, type: 3}
  ShootFXLight: {fileID: 10893002}
  LaserSight: {fileID: 2385356}
  laserBeamPrefab: {fileID: 175306, guid: 2f0a2794592aba64b9c9821f584f5e1b, type: 3}
  laserWidthFactor: 1
  laserLiveTime: 0.3
  warmingTime: 0.2
  generatesBloodDamage: 1
  warmingVFX: {fileID: 0}
  laserHitVFX: {fileID: 101868, guid: f4f01c13542539549bdb8c32727ccd2a, type: 3}
  ShootTarget: {fileID: 0}
  Player: {fileID: 0}
  ShootSFX:
  - {fileID: 8300000, guid: 2339fab1177a09d4780517ed5f8c0203, type: 3}
  ReloadSFX: {fileID: 8300000, guid: 780573ff5af3d0d46884b10ce0176600, type: 3}
  ShootEmptySFX: {fileID: 0}
  Audio: {fileID: 0}
  AutoAimAngle: 7.5
  AutoAimDistance: 10
  updateHUD: 1
  WeaponPicture: {fileID: 21300000, guid: ba99cb7c71e9f9e40b953c6c00599e12, type: 3}
  HUDWeaponPicture: {fileID: 0}
  HUDWeaponBullets: {fileID: 0}
  HUDWeaponBulletsBar: {fileID: 0}
  HUDWeaponClips: {fileID: 0}
  HUDquickRelaodMarker: {fileID: 0}
  HUDquickRelaodZone: {fileID: 0}
  usePooling: 1
  AIWeapon: 0
  AIEnemyTarget: {fileID: 0}
  turretWeapon: 0
  team: 0
--- !u!65 &65578625859581354
BoxCollider:
  m_ObjectHideFlags: 0
  m_CorrespondingSourceObject: {fileID: 0}
  m_PrefabInstance: {fileID: 0}
  m_PrefabAsset: {fileID: 0}
  m_GameObject: {fileID: 146372}
  m_Material: {fileID: 0}
  m_IsTrigger: 0
  m_Enabled: 0
  serializedVersion: 2
  m_Size: {x: 0.08, y: 0.24, z: 0.87}
  m_Center: {x: 0, y: 0, z: 0.18}
--- !u!1 &149316
GameObject:
  m_ObjectHideFlags: 0
  m_CorrespondingSourceObject: {fileID: 0}
  m_PrefabInstance: {fileID: 0}
  m_PrefabAsset: {fileID: 0}
  serializedVersion: 6
  m_Component:
  - component: {fileID: 482720}
  - component: {fileID: 3325182}
  - component: {fileID: 2385356}
  m_Layer: 0
  m_Name: St_Laser
  m_TagString: Untagged
  m_Icon: {fileID: 0}
  m_NavMeshLayer: 0
  m_StaticEditorFlags: 0
  m_IsActive: 1
--- !u!4 &482720
Transform:
  m_ObjectHideFlags: 0
  m_CorrespondingSourceObject: {fileID: 0}
  m_PrefabInstance: {fileID: 0}
  m_PrefabAsset: {fileID: 0}
  m_GameObject: {fileID: 149316}
  m_LocalRotation: {x: -0.7071067, y: -0.000000028871, z: 0.000000029802322, w: 0.7071068}
  m_LocalPosition: {x: 0, y: -0, z: 0}
  m_LocalScale: {x: 0.30649072, y: 1, z: 1}
  m_Children: []
  m_Father: {fileID: 480116}
  m_RootOrder: 1
  m_LocalEulerAnglesHint: {x: 0, y: 0, z: 0}
--- !u!33 &3325182
MeshFilter:
  m_ObjectHideFlags: 0
  m_CorrespondingSourceObject: {fileID: 0}
  m_PrefabInstance: {fileID: 0}
  m_PrefabAsset: {fileID: 0}
  m_GameObject: {fileID: 149316}
  m_Mesh: {fileID: 4300000, guid: c7c192a89947a714b936e04cd45015bf, type: 3}
--- !u!23 &2385356
MeshRenderer:
  m_ObjectHideFlags: 0
  m_CorrespondingSourceObject: {fileID: 0}
  m_PrefabInstance: {fileID: 0}
  m_PrefabAsset: {fileID: 0}
  m_GameObject: {fileID: 149316}
  m_Enabled: 0
  m_CastShadows: 1
  m_ReceiveShadows: 1
  m_DynamicOccludee: 1
  m_StaticShadowCaster: 0
  m_MotionVectors: 1
  m_LightProbeUsage: 1
  m_ReflectionProbeUsage: 1
  m_RayTracingMode: 2
  m_RayTraceProcedural: 0
  m_RenderingLayerMask: 1
  m_RendererPriority: 0
  m_Materials:
  - {fileID: 2100000, guid: 26f5a18739906644e944e7ce331bf3e7, type: 2}
  m_StaticBatchInfo:
    firstSubMesh: 0
    subMeshCount: 0
  m_StaticBatchRoot: {fileID: 0}
  m_ProbeAnchor: {fileID: 0}
  m_LightProbeVolumeOverride: {fileID: 0}
  m_ScaleInLightmap: 1
  m_ReceiveGI: 1
  m_PreserveUVs: 0
  m_IgnoreNormalsForChartDetection: 0
  m_ImportantGI: 0
  m_StitchLightmapSeams: 0
  m_SelectedEditorRenderState: 3
  m_MinimumChartSize: 4
  m_AutoUVMaxDistance: 0.5
  m_AutoUVMaxAngle: 89
  m_LightmapParameters: {fileID: 0}
  m_SortingLayerID: 0
  m_SortingLayer: 0
  m_SortingOrder: 0
  m_AdditionalVertexStreams: {fileID: 0}
--- !u!1 &151582
GameObject:
  m_ObjectHideFlags: 0
  m_CorrespondingSourceObject: {fileID: 0}
  m_PrefabInstance: {fileID: 0}
  m_PrefabAsset: {fileID: 0}
  serializedVersion: 6
  m_Component:
  - component: {fileID: 445812}
  m_Layer: 9
  m_Name: WeaponGrip
  m_TagString: Untagged
  m_Icon: {fileID: 0}
  m_NavMeshLayer: 0
  m_StaticEditorFlags: 0
  m_IsActive: 1
--- !u!4 &445812
Transform:
  m_ObjectHideFlags: 0
  m_CorrespondingSourceObject: {fileID: 0}
  m_PrefabInstance: {fileID: 0}
  m_PrefabAsset: {fileID: 0}
  m_GameObject: {fileID: 151582}
  m_LocalRotation: {x: -0.7071069, y: -0.000000010536713, z: 0.000000010536709, w: 0.70710665}
  m_LocalPosition: {x: 0, y: 0, z: 0}
  m_LocalScale: {x: 1, y: 1.0000004, z: 1.0000002}
  m_Children:
  - {fileID: 480116}
  m_Father: {fileID: 452552}
  m_RootOrder: 1
  m_LocalEulerAnglesHint: {x: 0, y: 0, z: 0}
--- !u!1 &1549026092705112
GameObject:
  m_ObjectHideFlags: 0
  m_CorrespondingSourceObject: {fileID: 0}
  m_PrefabInstance: {fileID: 0}
  m_PrefabAsset: {fileID: 0}
  serializedVersion: 6
  m_Component:
  - component: {fileID: 4465629196248968}
  - component: {fileID: 114715021694966870}
  m_Layer: 9
  m_Name: ArmIK
  m_TagString: Untagged
  m_Icon: {fileID: 0}
  m_NavMeshLayer: 0
  m_StaticEditorFlags: 0
  m_IsActive: 1
--- !u!4 &4465629196248968
Transform:
  m_ObjectHideFlags: 0
  m_CorrespondingSourceObject: {fileID: 0}
  m_PrefabInstance: {fileID: 0}
  m_PrefabAsset: {fileID: 0}
  m_GameObject: {fileID: 1549026092705112}
  m_LocalRotation: {x: 0.70632386, y: 0.033256344, z: 0.7063248, w: -0.033254646}
  m_LocalPosition: {x: -0.08347824, y: -0.073912956, z: 0.34000015}
  m_LocalScale: {x: 0.86956626, y: 0.869566, z: 0.86956555}
  m_Children: []
  m_Father: {fileID: 452552}
  m_RootOrder: 2
  m_LocalEulerAnglesHint: {x: -5.3910003, y: 90.00001, z: 180.00002}
--- !u!114 &114715021694966870
MonoBehaviour:
  m_ObjectHideFlags: 0
  m_CorrespondingSourceObject: {fileID: 0}
  m_PrefabInstance: {fileID: 0}
  m_PrefabAsset: {fileID: 0}
  m_GameObject: {fileID: 1549026092705112}
  m_Enabled: 1
  m_EditorHideFlags: 0
  m_Script: {fileID: 11500000, guid: 27feffa07983508459668817cfc60f0d, type: 3}
  m_Name: 
  m_EditorClassIdentifier: 
  WeaponReference: {fileID: 4300000, guid: a84e0ea13527d5245a4ae4c35c79d365, type: 3}
  meshScale: 0.1
