%YAML 1.1
%TAG !u! tag:unity3d.com,2011:
--- !u!78 &1
TagManager:
  serializedVersion: 2
  tags:
  - Destroyable
  - Enemy
  - Usable
  - EndLevel
  - SurvCamera
  - Alarm
  - EnvZone
  - Pickup
  - Noise
  - Bullets
  - Canvas
  - AIPlayer
  layers:
  - Default
  - TransparentFX
  - Ignore Raycast
  - 
  - Water
  - UI
  - 
  - 
  - Objects
  - Character
  - DeadCharacter
  - Dynamic
  - Triggers
  - Bullets
  - PlayerCharacter
  - CameraWall
  - Blood
  - Weapon
  - 
  - 
  - 
  - 
  - 
  - 
  - 
  - 
  - 
  - 
  - 
  - 
  - 
  - 
  m_SortingLayers:
  - name: Default
    uniqueID: 0
    locked: 0
