%YAML 1.1
%TAG !u! tag:unity3d.com,2011:
--- !u!162 &1
EditorUserSettings:
  m_ObjectHideFlags: 0
  serializedVersion: 4
  m_ConfigSettings:
    Entity Inspector Settings:
      value: 183b144645154b790c0d07271e271d4a564654406c6866706f0d1420f2ec3521c1e83bf9e8343a322d36f62c017c5b7ff40b0518f36117
      flags: 0
    RecentlyUsedSceneGuid-0:
      value: 0608010304530b0f5b5b547115210c44124f4e722e29246129284f63b7e4366f
      flags: 0
    RecentlyUsedScenePath-0:
      value: 22424703114646680e072a2b2f104f111512271923242239283b2210eded2434e7f333a6d4393a323c11a06d3b1a0432fd390a0ef80e3528190fef0f12eb150122c014c019dc1613c53409c2d914c1efd4cfd1f896fee9d1cac6
      flags: 0
    RecentlyUsedScenePath-1:
      value: 22424703114646680e072a2b2f104f111512271923242239283b2210eded2434e7f333a6d4393a323c11a06e0001253aff053a08f3050f343d01fe0f1dd2051f05cc08c91bd11a0ef42a0cc2c409e2e0c7d3d1e496fee9d1cac6
      flags: 0
    RecentlyUsedScenePath-2:
      value: 22424703114646680e072a2b2f104f111512271923242239283b2210eded2434e7f333a6d4393a323c11a06f3b1a0432fd390a0ef80e353f1e19f81c35fa16161fd61df11fdb0b52de1715dad4
      flags: 0
    RecentlyUsedScenePath-3:
      value: 22424703114646680e072a2b2f104f111512271923242239283b2210eded2434e7f333a6d4393a323c11a06c3b1a0432fd390a0ef80e35261007f32314f1055d04cb11d103
      flags: 0
    RecentlyUsedScenePath-4:
      value: 22424703114646680e072a2b2f104f111512271923242239283b2210eded2434e7f333a6d4393a323c11a06e0601253aff053a08f3050f343201f21e3cea1c0718d514c403cd0d23f81a0ec7dd09c2adc0d8ddfec1
      flags: 0
    RecentlyUsedScenePath-5:
      value: 22424703114646680e072a2b2f104f111512271923242239283b2210eded2434e7f333a6d4393a323c11a013281a4e1bf7070638f50e040e2e23e80205f6001f10dc1dd729dc1e0edf5709c0c409c8
      flags: 0
    RecentlyUsedScenePath-6:
      value: 22424703114646680e072a2b2f104f111512271923242239283b2210eded2434e7f333a6d4393a323c11a06e0201253aff053a08f3050f34221bef1818e9111f3cca1cc054dd1115df00
      flags: 0
    RecentlyUsedScenePath-7:
      value: 22424703114646680e072a2b2f104f111512271923242239283b2210eded2434e7f333a6d4393a323c11a06d3b1a0432fd390a0ef80e3528190fef0f12eb150122c014c019dc1613c52a15c0ca11d4f3d9d7cdefcaa5f2d6d7cbb9
      flags: 0
    RecentlyUsedScenePath-8:
      value: 22424703114646680e0b0227036c6c111b07142f1f2b233e2867083debf42d
      flags: 0
    RecentlyUsedScenePath-9:
      value: 22424703114646680e0b0227036c7d051a1b1d3e1f2b233e2867083debf42d
      flags: 0
    unity-properties__ui-persistent-state:
      value: 183b144645154b7d0202082d05376c0417031d6876681d0d61435d73a2a07608e3e03fe7e62e36333731fb3d103b4365b2313461eb
      flags: 0
    vcSharedLogLevel:
      value: 0d5e400f0650
      flags: 0
  m_VCAutomaticAdd: 1
  m_VCDebugCom: 0
  m_VCDebugCmd: 0
  m_VCDebugOut: 0
  m_SemanticMergeMode: 2
  m_DesiredImportWorkerCount: 3
  m_StandbyImportWorkerCount: 2
  m_IdleImportWorkerShutdownDelay: 60000
  m_VCShowFailedCheckout: 1
  m_VCOverwriteFailedCheckoutAssets: 1
  m_VCProjectOverlayIcons: 1
  m_VCHierarchyOverlayIcons: 1
  m_VCOtherOverlayIcons: 1
  m_VCAllowAsyncUpdate: 1
  m_ArtifactGarbageCollection: 1
