%YAML 1.1
%TAG !u! tag:unity3d.com,2011:
--- !u!21 &2100000
Material:
  serializedVersion: 6
  m_ObjectHideFlags: 0
  m_CorrespondingSourceObject: {fileID: 0}
  m_PrefabInstance: {fileID: 0}
  m_PrefabAsset: {fileID: 0}
  m_Name: Proxy_Barrels
  m_Shader: {fileID: 4800000, guid: 379c1070b49fc7e4b961df5119ca6d13, type: 3}
  m_ShaderKeywords: 
  m_LightmapFlags: 4
  m_EnableInstancingVariants: 0
  m_DoubleSidedGI: 0
  m_CustomRenderQueue: -1
  stringTagMap: {}
  disabledShaderPasses: []
  m_SavedProperties:
    serializedVersion: 3
    m_TexEnvs:
    - _BumpMap:
        m_Texture: {fileID: 0}
        m_Scale: {x: 1, y: 1}
        m_Offset: {x: 0, y: 0}
    - _ColorMask:
        m_Texture: {fileID: 0}
        m_Scale: {x: 1, y: 1}
        m_Offset: {x: 0, y: 0}
    - _DetailAlbedoMap:
        m_Texture: {fileID: 0}
        m_Scale: {x: 1, y: 1}
        m_Offset: {x: 0, y: 0}
    - _DetailMask:
        m_Texture: {fileID: 0}
        m_Scale: {x: 1, y: 1}
        m_Offset: {x: 0, y: 0}
    - _DetailNormalMap:
        m_Texture: {fileID: 0}
        m_Scale: {x: 1, y: 1}
        m_Offset: {x: 0, y: 0}
    - _EmissionMap:
        m_Texture: {fileID: 0}
        m_Scale: {x: 1, y: 1}
        m_Offset: {x: 0, y: 0}
    - _MainTex:
        m_Texture: {fileID: 0}
        m_Scale: {x: 1, y: 1}
        m_Offset: {x: 0, y: 0}
    - _MetallicGlossMap:
        m_Texture: {fileID: 0}
        m_Scale: {x: 1, y: 1}
        m_Offset: {x: 0, y: 0}
    - _OcclusionMap:
        m_Texture: {fileID: 0}
        m_Scale: {x: 1, y: 1}
        m_Offset: {x: 0, y: 0}
    - _ParallaxMap:
        m_Texture: {fileID: 0}
        m_Scale: {x: 1, y: 1}
        m_Offset: {x: 0, y: 0}
    - _TemperatureMask:
        m_Texture: {fileID: 2800000, guid: 661811ea92622194ca8fd3fad893bd74, type: 3}
        m_Scale: {x: 1, y: 1}
        m_Offset: {x: 0, y: 0}
    m_Ints: []
    m_Floats:
    - _BumpScale: 1
    - _BurningMix: 0
    - _Cutoff: 0.5
    - _DamageFX: 0
    - _DetailNormalMapScale: 1
    - _DstBlend: 0
    - _EmissionFactor: 1
    - _FrozenMix: 0
    - _GlossMapScale: 1
    - _Glossiness: 1.035
    - _GlossyReflections: 1
    - _Metallic: 0
    - _Mode: 0
    - _OcclusionStrength: 0
    - _Parallax: 0.02
    - _SmoothnessTextureChannel: 0
    - _SpecularHighlights: 1
    - _SrcBlend: 1
    - _TemperatureVFXScale: 4
    - _UVSec: 0
    - _ZWrite: 1
    m_Colors:
    - _BurningColor: {r: 0.8, g: 0.29999998, b: 0.09999997, a: 1}
    - _Color: {r: 0.66176474, g: 0.63780427, b: 0.5595805, a: 1}
    - _EmissionColor: {r: 0, g: 0, b: 0, a: 1}
    - _FrozenColor: {r: 0.5, g: 0.6, b: 0.7, a: 1}
    - _MaskedColorA: {r: 1, g: 0, b: 0, a: 1}
    - _MaskedColorB: {r: 0, g: 1, b: 0, a: 1}
    - _MaskedColorC: {r: 0, g: 0, b: 1, a: 1}
  m_BuildTextureStacks: []
